<?xml version="1.0" standalone="no"?>
<!DOCTYPE svg PUBLIC "-//W3C//DTD SVG 20010904//EN"
 "http://www.w3.org/TR/2001/REC-SVG-20010904/DTD/svg10.dtd">
<svg version="1.0" xmlns="http://www.w3.org/2000/svg"
 width="16.000000pt" height="16.000000pt" viewBox="0 0 16.000000 16.000000"
 preserveAspectRatio="xMidYMid meet">
<metadata>
Created by potrace 1.11, written by Peter Selinger 2001-2013
</metadata>
<g transform="translate(0.000000,16.000000) scale(0.000521,-0.000521)"
fill="#000000" stroke="none">
<path d="M15355 22859 c-117 -12 -215 -36 -354 -86 -286 -104 -248 -96 -441
-99 -288 -5 -434 -20 -650 -65 -52 -11 -105 -22 -118 -25 -81 -16 -209 -66
-347 -134 l-160 -80 -110 -5 c-192 -8 -248 -16 -325 -42 -93 -31 -313 -138
-400 -194 -36 -23 -90 -58 -120 -78 -132 -85 -254 -199 -319 -296 -14 -22 -31
-45 -37 -52 -37 -39 -111 -280 -131 -425 -20 -143 7 -363 64 -523 67 -188 196
-370 404 -572 120 -117 245 -185 474 -257 258 -82 377 -81 645 6 130 42 233
98 309 168 45 41 68 56 80 51 9 -4 43 -20 76 -35 95 -45 194 -90 268 -121 43
-18 63 -31 55 -36 -7 -3 -58 -18 -113 -33 -104 -27 -252 -66 -415 -110 -189
-50 -405 -108 -420 -112 -8 -2 -67 -17 -130 -34 -451 -122 -417 -114 -505
-124 -40 -5 -167 -33 -275 -61 -8 -3 -60 -16 -115 -31 -55 -14 -107 -28 -115
-30 -8 -2 -58 -15 -110 -29 -52 -15 -103 -28 -113 -30 -9 -2 -91 -24 -180 -50
-90 -25 -172 -47 -183 -50 -10 -2 -134 -36 -274 -75 -140 -39 -262 -72 -270
-75 -34 -8 -132 -35 -240 -65 -63 -18 -128 -36 -145 -40 -40 -10 -566 -156
-630 -174 -92 -27 -380 -108 -395 -111 -14 -3 -183 -51 -575 -161 -88 -25
-167 -47 -175 -49 -8 -2 -89 -25 -180 -50 -91 -25 -203 -57 -250 -70 -238 -66
-1466 -413 -2085 -590 -148 -42 -277 -79 -285 -81 -65 -18 -198 -56 -445 -127
-66 -19 -185 -53 -265 -76 -80 -23 -174 -50 -210 -61 -82 -25 -305 -90 -345
-100 -126 -33 -471 -141 -660 -207 -665 -230 -1099 -486 -1496 -882 -153 -153
-238 -253 -362 -424 -315 -432 -576 -1007 -742 -1637 -9 -36 -64 -268 -69
-292 -3 -16 -9 -40 -12 -55 -4 -16 -8 -35 -9 -43 -1 -8 -5 -33 -9 -55 -4 -22
-16 -87 -26 -145 -18 -99 -22 -130 -35 -247 -3 -27 -8 -57 -10 -68 -2 -11 -6
-56 -10 -100 -3 -44 -8 -93 -10 -110 -5 -37 -14 -176 -20 -310 -12 -243 -1
-772 20 -980 2 -22 9 -94 15 -160 6 -66 13 -131 15 -145 2 -14 7 -50 10 -80 3
-30 8 -75 11 -100 2 -25 7 -65 9 -90 3 -25 7 -58 9 -75 3 -16 8 -57 11 -90 4
-33 8 -71 11 -85 2 -14 6 -41 9 -60 3 -20 16 -87 31 -150 14 -63 27 -126 30
-140 3 -14 9 -38 14 -55 8 -24 40 -148 55 -215 4 -15 33 -123 79 -295 85 -314
137 -473 201 -615 25 -56 77 -180 115 -274 65 -164 167 -403 188 -442 6 -11
51 -100 101 -200 49 -99 103 -204 120 -233 17 -28 31 -54 31 -56 0 -21 402
-654 443 -697 6 -7 28 -36 46 -63 19 -28 37 -52 41 -55 3 -3 18 -23 34 -45 33
-45 205 -264 221 -281 5 -6 35 -39 65 -74 116 -134 140 -160 310 -330 364
-364 551 -512 948 -749 84 -50 156 -91 160 -91 4 0 23 -11 42 -24 34 -23 238
-127 350 -179 203 -94 509 -195 670 -222 35 -5 63 -11 110 -21 49 -10 192 -24
295 -29 44 -2 157 -4 250 -5 l170 -1 180 49 c263 72 528 144 545 148 8 1 67
17 130 34 63 17 147 40 185 50 39 10 106 28 150 40 74 21 129 35 165 44 8 2
101 27 205 56 105 28 197 53 205 55 8 2 51 13 95 25 44 12 127 35 185 50 58
16 155 42 215 58 169 46 278 75 700 188 215 57 422 113 460 124 39 11 79 22
90 24 11 3 146 39 300 81 154 42 288 78 298 80 10 2 52 14 95 25 42 12 84 23
92 25 19 5 159 42 415 111 72 20 164 44 205 55 41 11 275 74 520 140 245 66
522 141 615 165 94 25 251 67 350 95 99 27 189 51 200 54 11 2 214 56 450 120
631 169 656 176 705 190 62 18 391 106 410 110 8 2 56 14 105 28 85 24 793
215 825 222 8 2 58 16 110 30 52 15 103 28 113 31 26 6 107 28 387 104 85 23
164 44 174 46 10 2 33 8 50 14 17 5 83 23 146 40 63 17 158 42 210 56 52 14
102 27 110 29 8 2 125 34 260 70 135 37 252 69 260 70 8 2 15 4 15 5 0 1 8 3
18 5 9 2 65 17 125 33 59 16 202 55 317 86 116 31 293 79 395 107 102 27 192
52 201 54 23 5 939 251 969 260 3 1 19 5 35 10 17 4 86 23 155 42 69 19 133
36 142 38 106 23 216 61 251 86 37 26 107 74 217 150 113 78 245 186 334 274
169 166 217 230 457 605 79 124 185 287 236 363 51 76 93 139 93 142 0 2 13
23 29 47 16 24 37 59 48 78 37 69 145 246 179 295 167 236 376 493 469 574 22
20 58 55 80 78 29 31 76 59 175 106 318 151 316 151 555 223 220 67 758 222
868 250 27 7 42 11 232 64 99 28 187 53 195 54 8 2 42 11 75 21 33 9 76 20 96
25 19 5 118 32 220 60 101 28 218 60 259 71 41 11 131 36 200 56 69 19 132 36
140 38 8 2 71 19 140 38 l125 35 73 -29 c97 -39 145 -64 163 -85 7 -9 32 -28
54 -43 38 -25 46 -26 175 -26 160 1 238 19 384 91 88 43 99 46 167 44 41 -1
83 -2 94 -2 25 1 134 13 155 18 8 1 28 6 44 9 69 14 192 71 248 114 49 36 69
61 98 118 49 95 89 222 114 358 3 17 8 64 11 105 14 209 34 259 151 370 195
186 292 305 398 488 174 299 253 525 271 772 13 182 16 217 20 250 22 171 42
385 50 545 10 194 16 291 20 325 2 19 7 59 10 89 4 30 8 61 10 70 1 9 6 36 10
61 3 25 9 59 11 75 3 17 12 64 20 105 9 41 17 82 19 91 9 46 50 169 67 204 43
83 73 116 153 169 114 75 201 82 384 29 147 -43 225 -45 366 -8 138 36 242 74
381 140 73 35 78 40 113 130 16 42 21 70 26 145 3 36 8 85 11 110 4 25 8 56
10 70 10 88 17 137 20 155 6 29 6 135 -1 170 -13 71 -79 329 -126 493 -28 97
-57 201 -65 231 -34 127 -117 357 -150 419 -38 70 -90 145 -135 197 -86 96
-125 147 -160 207 -62 106 -218 210 -318 210 -61 1 -150 -12 -246 -35 -133
-33 -245 -115 -407 -298 -87 -99 -163 -139 -279 -146 -176 -12 -297 62 -515
312 -133 152 -197 239 -395 535 -80 118 -196 285 -260 370 -64 85 -149 204
-190 264 -111 163 -275 318 -464 438 -33 21 -64 41 -70 45 -21 17 -114 66
-212 113 -131 63 -274 113 -404 140 -207 44 -255 76 -371 248 -89 133 -233
263 -353 319 -57 27 -67 28 -200 27 -214 -1 -324 -37 -472 -151 -71 -55 -107
-75 -198 -109 -33 -12 -103 -31 -150 -40 -249 -48 -405 -129 -542 -282 -144
-159 -288 -297 -358 -344 -133 -88 -301 -156 -800 -323 -255 -85 -590 -193
-720 -231 -49 -14 -142 -42 -205 -61 -156 -47 -529 -150 -571 -158 -89 -16
-358 -9 -390 10 -6 4 -79 31 -162 60 -84 29 -228 84 -322 123 -93 39 -242 96
-330 127 -88 31 -176 64 -195 72 -59 26 -66 28 -423 163 -191 72 -358 135
-370 140 -12 5 -213 82 -447 170 -234 88 -434 164 -445 169 -32 14 -169 65
-180 67 -5 1 -41 14 -80 29 -104 41 -386 135 -402 135 -8 0 -45 13 -81 29 -67
28 -103 43 -112 46 -3 1 -25 7 -50 15 -25 7 -48 16 -51 19 -4 3 -9 42 -13 86
-3 44 -8 98 -11 120 -18 130 -108 362 -190 488 -170 264 -458 458 -712 483
-32 3 -62 6 -68 8 -5 1 -41 -1 -80 -5z m1381 -1658 c181 -60 345 -112 364
-115 19 -2 55 -8 79 -11 24 -4 108 -30 185 -60 78 -29 170 -61 206 -71 36 -10
148 -46 250 -81 102 -35 205 -69 230 -75 25 -5 50 -15 55 -21 7 -7 6 -8 -2 -3
-53 30 -779 25 -888 -6 -22 -6 -45 -12 -52 -14 -7 -1 -97 -25 -200 -53 -265
-72 -755 -202 -774 -206 -9 -2 -47 -12 -85 -23 -93 -26 -224 -62 -249 -67 -11
-2 -45 -11 -75 -20 -30 -9 -62 -17 -70 -19 -33 -8 -218 -58 -266 -72 -28 -8
-60 -16 -70 -19 -11 -2 -53 -13 -94 -24 -337 -90 -448 -119 -466 -122 -11 -2
-67 19 -125 48 -111 55 -192 91 -249 112 -19 7 -44 17 -55 21 -78 31 -83 32
-210 40 -11 0 111 45 270 99 493 167 706 249 791 305 28 19 81 64 118 101 68
68 107 91 173 101 45 6 140 22 168 28 11 3 65 14 120 25 144 30 350 88 393
110 45 23 81 57 147 139 28 34 51 62 51 62 1 0 150 -49 330 -109z"/>
</g>
</svg>
